{
  "api": {
    "invokeUrl": "https://s0tcxz3548.execute-api.eu-central-1.amazonaws.com/prod"
  },
  "cognito": {
    "REGION": "eu-central-1",
    "USER_POOL_ID": "eu-central-1_YJPDUArSj",
    "APP_CLIENT_ID": "v44gcpml4n0611b15o44s3knt"
  }
}